{
  "VUE_APP_TAG_SERVER_URL": "http://my.dfjx.com:30021",
  "VUE_APP_BASE_CONTENT": "/",
  "VUE_APP_SYS_PORT": "3021",
  "VUE_APP_AC_HTTP_LOGIN": "http://cloud.dfjx.com:8081",
  "VUE_APP_BACK_RETURN": "http://localhost:20001/login/auth/token",
  "VUE_APP_AC_HTTP_SERVER": "http://cloud.dfjx.com:8082",
  "VUE_APP_AUTH_NEED": "NO",
  "VUE_APP_LOGIN_AFTER": "http://my.dfjx.com:3021"
}
